{
    "artist":{
        "name":"Ussy Sulistiawaty",
        "country_name":"Indonesia",
        "social_network_accounts":{
            "facebook":"https://www.facebook.com/ussypratama13",
            "instagram":"https://www.instagram.com/ussypratama/"
        },
        "id":1100,
        "genre":"Entertainment",
        "profile_photos":{
            "full_resolution":"https://d1vntv0m6mp43l.cloudfront.net/profile_photos/74791edf1f8e8b8289a5067737630874/24175669_155419198559161_8182722368934772736_n.jpg",
            "thumbnail":"https://d1vntv0m6mp43l.cloudfront.net/profile_photos/74791edf1f8e8b8289a5067737630874/thumbnail_24175669_155419198559161_8182722368934772736_n.jpg",
            "square":"https://d1vntv0m6mp43l.cloudfront.net/profile_photos/74791edf1f8e8b8289a5067737630874/square_24175669_155419198559161_8182722368934772736_n.jpg"
        },
        "qna_enabled":true,
        "gender":"Female",
        "referral_code":"USSY-1100",
        "following":true,
        "followers_count":3,
        "country":"id"
    },
    "timestamp":"2017-11-24 19:06:48",
    "preview":"You: Which do you prefer? Acting, singing or hosting... (2000 Stars)",
    "read":true
}
