{
    "id": 1,
    "name": "Izad Che Muda",
    "email": "izadcm@gmail.com",
    "notification": true,
    "profile_photos": {
        "full_resolution": "https://d1vntv0m6mp43l.cloudfront.net/profile_photos/a4d92e2cd541fca87e4620aba658316d/1494580669.27373.jpg",
        "square": "https://d1vntv0m6mp43l.cloudfront.net/profile_photos/a4d92e2cd541fca87e4620aba658316d/square_1494580669.27373.jpg",
        "thumbnail": "https://d1vntv0m6mp43l.cloudfront.net/profile_photos/a4d92e2cd541fca87e4620aba658316d/thumbnail_1494580669.27373.jpg"
    },
    "voter": null,
    "current_balance": 337000,
    "access_token": "SiXa4XnHQGY8sPmuyNQDXdn8"
}
